…
data_clean <- data_clean %>%
  filter(!ID %in% leverage$ID)
```

Refit model

``` r
reg <- lm(Overall.Rating ~ . - ID, data_clean)
tidy(summary(reg))
```

    ## # A tibble: 23 x 5
    ##    term                              estimate std.error statistic   p.value
    ##    <chr>                                <dbl>     <dbl>     <dbl>     <dbl>
    ##  1 (Intercept)                         42.3     71.2        0.594 5.52e-  1
    ##  2 Program.Expenses                    17.6     71.3        0.246 8.06e-  1
    ##  3 Administrative.Expenses            -12.5     71.3       -0.175 8.61e-  1
    ##  4 Fundraising.Expenses               -26.1     71.3       -0.366 7.14e-  1
    ##  5 Fundraising.Efficiency             -10.0      0.630    -15.9   6.21e- 56
    ##  6 Working.Capital.Ratio..years.        0.215    0.0165    13.0   2.83e- 38
    ##  7 Program.Expenses.Growth             14.1      0.315     44.8   0.       
    ##  8 Liabilities.to.Assets               -9.81     0.215    -45.7   0.       
    ##  9 Independent.Voting.Board.Members~    8.44     0.218     38.7   6.78e-299
    ## 10 Audited.financials.prepared.by.i~    6.27     0.143     43.9   0.       
    ## # ... with 13 more rows

Remove `No.Material.diversion.of.assets` and `Documents.Board.Meeting.Minutes` because all values are True and then refit.

``` r
reg <- lm(Overall.Rating ~ . - ID - No.Material.diversion.of.assets - Documents.Board.Meeting.Minutes, data_clean)
tidy(summary(reg))
```

    ## # A tibble: 23 x 5
    ##    term                              estimate std.error statistic   p.value
    ##    <chr>                                <dbl>     <dbl>     <dbl>     <dbl>
    ##  1 (Intercept)                         42.3     71.2        0.594 5.52e-  1
    ##  2 Program.Expenses                    17.6     71.3        0.246 8.06e-  1
    ##  3 Administrative.Expenses            -12.5     71.3       -0.175 8.61e-  1
    ##  4 Fundraising.Expenses               -26.1     71.3       -0.366 7.14e-  1
    ##  5 Fundraising.Efficiency             -10.0      0.630    -15.9   6.21e- 56
    ##  6 Working.Capital.Ratio..years.        0.215    0.0165    13.0   2.83e- 38
    ##  7 Program.Expenses.Growth             14.1      0.315     44.8   0.       
    ##  8 Liabilities.to.Assets               -9.81     0.215    -45.7   0.       
    ##  9 Independent.Voting.Board.Members~    8.44     0.218     38.7   6.78e-299
    ## 10 Audited.financials.prepared.by.i~    6.27     0.143     43.9   0.       
    ## # ... with 13 more rows

Remove `Administrative.Expenses` because highest statistically insignificant pvalue and refit.

``` r
reg <- lm(Overall.Rating ~ . - ID - No.Material.diversion.of.assets - Documents.Board.Meeting.Minutes - Administrative.Expenses, data_clean)
tidy(summary(reg))
```

    ## # A tibble: 22 x 5
    ##    term                              estimate std.error statistic   p.value
    ##    <chr>                                <dbl>     <dbl>     <dbl>     <dbl>
    ##  1 (Intercept)                         29.9      0.734      40.7  0.       
    ##  2 Program.Expenses                    30.0      0.629      47.8  0.       
    ##  3 Fundraising.Expenses               -13.6      0.991     -13.7  1.62e- 42
    ##  4 Fundraising.Efficiency             -10.0      0.630     -15.9  6.20e- 56
    ##  5 Working.Capital.Ratio..years.        0.215    0.0165     13.0  2.84e- 38
    ##  6 Program.Expenses.Growth             14.1      0.315      44.8  0.       
    ##  7 Liabilities.to.Assets               -9.81     0.215     -45.7  0.       
    ##  8 Independent.Voting.Board.Members~    8.44     0.218      38.7  6.25e-299
    ##  9 Audited.financials.prepared.by.i~    6.28     0.143      43.9  0.       
    ## 10 Does.Not.Provide.Loan.s..to.or.R~    1.28     0.212       6.06 1.39e-  9
    ## # ... with 12 more rows
…
Refit tuned linear regression

``` r
reg <- lm(Overall.Rating ~ . - ID - No.Material.diversion.of.assets - Documents.Board.Meeting.Minutes - Administrative.Expenses, data_clean)
tidy(summary(reg))
```

    ## # A tibble: 22 x 5
    ##    term                              estimate std.error statistic   p.value
    ##    <chr>                                <dbl>     <dbl>     <dbl>     <dbl>
    ##  1 (Intercept)                         29.9      0.734      40.7  0.       
    ##  2 Program.Expenses                    30.0      0.629      47.8  0.       
    ##  3 Fundraising.Expenses               -13.6      0.991     -13.7  1.62e- 42
    ##  4 Fundraising.Efficiency             -10.0      0.630     -15.9  6.20e- 56
    ##  5 Working.Capital.Ratio..years.        0.215    0.0165     13.0  2.84e- 38
    ##  6 Program.Expenses.Growth             14.1      0.315      44.8  0.       
    ##  7 Liabilities.to.Assets               -9.81     0.215     -45.7  0.       
    ##  8 Independent.Voting.Board.Members~    8.44     0.218      38.7  6.25e-299
    ##  9 Audited.financials.prepared.by.i~    6.28     0.143      43.9  0.       
    ## 10 Does.Not.Provide.Loan.s..to.or.R~    1.28     0.212       6.06 1.39e-  9
    ## # ... with 12 more rows
…
